xyzxyzxyyzxyzyxzxyyyxxxyyxzxyzyzyyyyxxzzxzzzxxxzxyzyyxxxxxxxxyyxzyxzyxxyxzzyxzzyzxzyyzzyxzzyyxyxyzyy
--------
x	y	z
--------
A	B	C
--------
	A	B	C
A	0.108	0.402	0.49	
B	0.475	0.451	0.074	
C	0.385	0.224	0.391	
--------
	x	y	z
A	0.432	0.106	0.461	
B	0.004	0.416	0.58	
C	0.338	0.31	0.353
